<?xml version="1.0" encoding="UTF-8"?>
<session version="1.0">
<refactoring comment="Delete resource &apos;SMSDemo&apos;" deleteContents="true" description="Delete resource &apos;SMSDemo&apos;" element1="/SMSDemo" flags="7" id="org.eclipse.ltk.core.refactoring.delete.resources" resources="1" stamp="1389377487409"/>
</session>